-------------------------------------------------------------------------------
Test set: com.gitlab.salkaev.sala01adventurasem.logika.SeznamPrikazuTest
-------------------------------------------------------------------------------
Tests run: 3, Failures: 0, Errors: 0, Skipped: 0, Time elapsed: 0 s - in com.gitlab.salkaev.sala01adventurasem.logika.SeznamPrikazuTest
