/Users/salkaev/Desktop/SoftEngSemPrace/sala01adventurasem/src/test/java/com/gitlab/salkaev/sala01adventurasem/logika/ProstorTest.java
/Users/salkaev/Desktop/SoftEngSemPrace/sala01adventurasem/src/test/java/com/gitlab/salkaev/sala01adventurasem/logika/BatohTest.java
/Users/salkaev/Desktop/SoftEngSemPrace/sala01adventurasem/src/test/java/com/gitlab/salkaev/sala01adventurasem/logika/SeznamPrikazuTest.java
/Users/salkaev/Desktop/SoftEngSemPrace/sala01adventurasem/src/test/java/com/gitlab/salkaev/sala01adventurasem/logika/HraTest.java
